{
  "project_info": {
    "project_number": "107798707373",
    "project_id": "moviedbapp-54fab",
    "storage_bucket": "moviedbapp-54fab.appspot.com"
  },
  "client": [
    {
      "client_info": {
        "mobilesdk_app_id": "1:107798707373:android:2c5f64922019d756171a24",
        "android_client_info": {
          "package_name": "com.moviedbapp"
        }
      },
      "oauth_client": [
        {
          "client_id": "107798707373-mhkaqf5f2apv4bn97cnt40mr4oh1n39u.apps.googleusercontent.com",
          "client_type": 1,
          "android_info": {
            "package_name": "com.moviedbapp",
            "certificate_hash": "661cc90100f32c7ada894383c530c36acf386db9"
          }
        },
        {
          "client_id": "107798707373-am5tan6ml1q0lrav8l49uhjrf4pigjb4.apps.googleusercontent.com",
          "client_type": 3
        }
      ],
      "api_key": [
        {
          "current_key": "AIzaSyD3iVmTalMMlKBuaSvzyNUMC2KDTBG3KUE"
        }
      ],
      "services": {
        "appinvite_service": {
          "other_platform_oauth_client": [
            {
              "client_id": "107798707373-am5tan6ml1q0lrav8l49uhjrf4pigjb4.apps.googleusercontent.com",
              "client_type": 3
            }
          ]
        }
      }
    }
  ],
  "configuration_version": "1"
}